# Blender v2.75 (sub 0) OBJ File: ''
# www.blender.org
mtllib kreuzungdecke.mtl
o decke_kreuzung
v -2.000000 2.100000 -2.000000
v -2.000000 2.100000 -0.521227
v -0.521226 2.100000 -0.521227
v 2.000000 2.100000 -2.000000
v 0.521227 2.100000 -2.000000
v 0.521226 2.100000 -0.521226
v -0.521226 2.100000 -2.000000
v -2.000000 2.100000 0.521226
v -0.521226 2.100000 0.521226
v 0.521226 2.100000 2.000000
v 0.521226 2.100000 0.521226
v 2.000000 2.100000 -0.521226
v -2.000000 2.100000 2.000000
v -0.521226 2.100000 2.000000
v 2.000000 2.100000 2.000000
v 2.000000 2.100000 0.521226
v -0.521226 2.100000 2.000000
v -2.000000 2.100000 -0.521227
v 0.521227 2.100000 -2.000000
v 2.000000 2.100000 0.521227
vt 1.000000 0.000000
vt 1.000000 1.000000
vt 0.000000 1.000000
vt 0.000000 0.000000
vn 0.000000 1.000000 0.000000
usemtl None
s off
f 1/1/1 2/2/1 3/3/1
f 4/1/1 5/2/1 6/3/1
f 6/4/1 7/2/1 3/3/1
f 3/4/1 8/2/1 9/3/1
f 9/4/1 10/2/1 11/3/1
f 11/4/1 12/2/1 6/3/1
f 13/1/1 14/2/1 9/3/1
f 15/1/1 16/2/1 11/3/1
f 11/3/1 10/4/1 15/1/1
f 9/4/1 17/1/1 10/2/1
f 9/3/1 8/4/1 13/1/1
f 3/3/1 7/4/1 1/1/1
f 6/3/1 12/4/1 4/1/1
f 3/4/1 18/1/1 8/2/1
f 6/4/1 19/1/1 7/2/1
f 11/4/1 20/1/1 12/2/1
